{
    "dependencies": {
        "adapt-component-animateCCmate": "*",
        "adapt-contrib-accordion": ">=2.1.1",
        "adapt-contrib-blank": ">=2.0.1",
        "adapt-component-flipcard": "*",
        "adapt-contrib-gmcq": ">=3.0.0",
        "adapt-contrib-graphic": ">=2.0.5",
        "adapt-contrib-hotgraphic": ">=2.1.1",
        "adapt-contrib-matching": ">=2.1.4",
        "adapt-contrib-mcq": ">=2.1.2",
        "adapt-contrib-narrative": ">=2.1",
        "adapt-contrib-text": ">=2.0.3",
        "adapt-component-dragndrop": "*",
        "adapt-component-hotgrid": "*",
        "adapt-kaltura": "*",
        "adapt-next-button": "*",
        "adapt-stacklist": "*",
        "adapt-contrib-bookmarking": ">=2.1.2",
        "adapt-contrib-pageLevelProgress": ">=2.0.9",
        "adapt-contrib-resources": ">=2.1.1",
        "adapt-contrib-spoor": ">=3",
        "adapt-contrib-trickle": ">=2.1.5",
        "adapt-contrib-tutor": ">=2.1.2",
        "adapt-dt-audio": "*",
        "adapt-pageIncompletePrompt": "*",
        "adapt-contrib-vanilla": ">=3",
        "adapt-contrib-boxMenu": ">=2.0.7"        
    }
}
